EDA-challenge
…
Species that spend more time moving do travel farther overall as there is a positive trend line. The Daubentonidae and Lorisidae are the only families that exhibit this trend.

To see if the data should be log transformed, we can create a histogram of the data.

d %>%
  mutate(DayLength_km = as.numeric(DayLength_km), na.rm = TRUE) %>%
  mutate(Move = as.numeric(Move), na.rm = TRUE) # changing the class of the variables to numeric

# A tibble: 213 × 27
   Scientific_Name             Family       Genus Species Brain_Size_Species_M…¹
   <chr>                       <chr>        <chr> <chr>                    <dbl>
 1 Allenopithecus_nigroviridis Cercopithec… Alle… nigrov…                   58.0
 2 Allocebus_trichotis         Cercopithec… Allo… tricho…                   NA  
 3 Alouatta_belzebul           Atelidae     Alou… belzeb…                   52.8
 4 Alouatta_caraya             Atelidae     Alou… caraya                    52.6
 5 Alouatta_guariba            Atelidae     Alou… guariba                   51.7
 6 Alouatta_palliata           Atelidae     Alou… pallia…                   49.9
 7 Alouatta_pigra              Atelidae     Alou… pigra                     51.1
 8 Alouatta_seniculus          Atelidae     Alou… senicu…                   55.2
 9 Aotus_azarai                Cebidae      Aotus azarai                    20.7
10 Aotus_brumbacki             Cebidae      Aotus brumba…                   NA  
# ℹ 203 more rows
# ℹ abbreviated name: ¹​Brain_Size_Species_Mean
# ℹ 22 more variables: Body_mass_male_mean <dbl>, Body_mass_female_mean <dbl>,
#   MeanGroupSize <dbl>, AdultMales <dbl>, AdultFemale <dbl>,
#   GR_MidRangeLat_dd <dbl>, Precip_Mean_mm <dbl>, Temp_Mean_degC <dbl>,
#   HomeRange_km2 <dbl>, DayLength_km <dbl>, Fruit <dbl>, Leaves <chr>,
#   Fauna <chr>, Canine_Dimorphism <dbl>, Feed <dbl>, Move <dbl>, Rest <dbl>, …
…
